ArchC: -------------------- Simulation Finished --------------------
------------------------------------------------------------

---------------------- PARCIAL RESULTS ---------------------

CACHE RESULTS:
Number of memory accesses: 	55251786
------------------------------------------------------------
Cache configuration 0:
L1-Data
Instruction read hit cycles: 0
Data read hit cycles: 38670420
Data write hit cycles: 24520100
Total hit cycles: 63190520

L1-Instructions
Instruction read hit cycles: 157816636
Data read hit cycles: 0
Data write hit cycles: 0
Total hit cycles: 157816636

L2
Instruction read hit cycles: 9520
Data read hit cycles: 1025070
Data write hit cycles: 137420
Total hit cycles: 1172010

Memory
Instruction read hit cycles: 71160
Data read hit cycles: 6698520
Data write hit cycles: 236640
Total hit cycles: 7006320

TOTAL 229185486

------------------------------------------------------------
Cache configuration 1:
L1-Data
Instruction read hit cycles: 0
Data read hit cycles: 38670420
Data write hit cycles: 24520100
Total hit cycles: 63190520

L1-Instructions
Instruction read hit cycles: 157816636
Data read hit cycles: 0
Data write hit cycles: 0
Total hit cycles: 157816636

L2
Instruction read hit cycles: 9520
Data read hit cycles: 1025070
Data write hit cycles: 137420
Total hit cycles: 1172010

L3
Instruction read hit cycles: 38545
Data read hit cycles: 3628365
Data write hit cycles: 128180
Total hit cycles: 3795090

Memory
Instruction read hit cycles: 70080
Data read hit cycles: 1845000
Data write hit cycles: 0
Total hit cycles: 1915080

TOTAL 227889336

------------------------------------------------------------
Cache configuration 2:
L1-Data
Instruction read hit cycles: 0
Data read hit cycles: 38670420
Data write hit cycles: 24520100
Total hit cycles: 63190520

L1-Instructions
Instruction read hit cycles: 157816636
Data read hit cycles: 0
Data write hit cycles: 0
Total hit cycles: 157816636

L2
Instruction read hit cycles: 5880
Data read hit cycles: 756320
Data write hit cycles: 100580
Total hit cycles: 862780

Memory
Instruction read hit cycles: 70080
Data read hit cycles: 1793040
Data write hit cycles: 0
Total hit cycles: 1863120

TOTAL 223733056
------------------------------------------------------------
Cache configuration 3:
L1-Data
Instruction read hit cycles: 0
Data read hit cycles: 38670420
Data write hit cycles: 24520100
Total hit cycles: 63190520

L1-Instructions
Instruction read hit cycles: 157816636
Data read hit cycles: 0
Data write hit cycles: 0
Total hit cycles: 157816636

L2
Instruction read hit cycles: 5880
Data read hit cycles: 756320
Data write hit cycles: 100580
Total hit cycles: 862780

L3
Instruction read hit cycles: 37960
Data read hit cycles: 971230
Data write hit cycles: 0
Total hit cycles: 1009190

Memory
Instruction read hit cycles: 70080
Data read hit cycles: 1793040
Data write hit cycles: 0
Total hit cycles: 1863120

TOTAL 224742246

------------------------------------------------------------

HAZARDS RESULTS:

With forwarding:
Control Hazards in 5-stage pipeline: 		3211524
Control Hazards in 7-stage pipeline: 		16238866
Data Hazards in 5-stage pipeline: 		0
Data Hazards in 7-stage pipeline: 		3363701


Without forwarding:
Control Hazards in 5-stage pipeline: 		3211524
Control Hazards in 7-stage pipeline: 		16238866
Data Hazards in 5-stage pipeline: 		6844366
Data Hazards in 7-stage pipeline: 		10839154


------------------------------------------------------------

BRANCH PREDICTION RESULTS:

Type of prediction: 		Times wrong
Static prediction (always not): 	2021382
Dynamic prediction buffer: 		538078
Two-level Adaptive buffer: 		255268
------------------------------------------------------------

------------------ FINAL CYCLES RESULTS ---------------------
Total instructions executed: 	39454159
Total cycles with forwarding in 5-stage pipeline: 	42665683
Total cycles with forwarding in 7-stage pipeline: 	59056726
Total cycles without forwarding in 5-stage pipeline: 	49510049
Total cycles without forwarding in 7-stage pipeline: 	69895880
------------------------------------------------------------


Info: /OSCI/SystemC: Simulation stopped by user.
